[
  {
    "children": [
      {
        "allow_new_line": false,
        "default": null,
        "id": "59bfcd20-9f41-e72a-992e-67f409d64d29",
        "label": "Link text",
        "locked": false,
        "name": "link_text",
        "required": true,
        "show_emoji_picker": false,
        "type": "text",
        "validation_regex": ""
      },
      {
        "default": false,
        "id": "e3049b55-62a4-2007-4fed-62baba77639f",
        "label": "Link to section",
        "locked": false,
        "name": "link_to_section",
        "required": false,
        "type": "boolean"
      },
      {
        "default": {
          "url": {
            "content_id": null,
            "type": "EXTERNAL",
            "href": ""
          },
          "open_in_new_tab": false,
          "no_follow": false
        },
        "id": "93746127-6f72-cc1f-2af0-4b5111d6ab41",
        "label": "Link field",
        "locked": false,
        "name": "link_field",
        "required": true,
        "supported_types": [
          "EXTERNAL",
          "CONTENT",
          "FILE",
          "EMAIL_ADDRESS",
          "BLOG"
        ],
        "type": "link",
        "visibility": {
          "controlling_field": "e3049b55-62a4-2007-4fed-62baba77639f",
          "controlling_value_regex": "true",
          "operator": "NOT_EQUAL"
        }
      },
      {
        "allow_new_line": false,
        "default": null,
        "id": "2c555ca3-05b8-af67-9eea-a52b82eee572",
        "label": "Section ID",
        "locked": false,
        "name": "section_id",
        "required": true,
        "show_emoji_picker": false,
        "type": "text",
        "validation_regex": "",
        "visibility": {
          "controlling_field": "e3049b55-62a4-2007-4fed-62baba77639f",
          "controlling_value_regex": "true",
          "operator": "EQUAL"
        }
      }
    ],
    "default": {
      "link_to_section": false,
      "link_field": {
        "url": {
          "content_id": null,
          "type": "EXTERNAL",
          "href": ""
        },
        "open_in_new_tab": false,
        "no_follow": false
      }
    },
    "id": "9944b3af-4a5d-a1e3-f4b3-014fa9205495",
    "label": "Links",
    "locked": false,
    "name": "links",
    "occurrence": {
      "sorting_label_field": "59bfcd20-9f41-e72a-992e-67f409d64d29"
    },
    "required": false,
    "type": "group"
  },
  {
    "children": [
      {
        "default": false,
        "help_text": "Makes a two-column numbered list instead of a three-column unordered list.",
        "id": "1a338e4d-adcc-3c16-1686-c68f0208d734",
        "label": "Numbered List",
        "locked": false,
        "name": "use_ol",
        "required": false,
        "type": "boolean"
      }
    ],
    "default": {
      "use_ol": false
    },
    "id": "c54bebd3-52e1-2220-e2a3-b36e3d1ea7fa",
    "label": "Display Options",
    "locked": false,
    "name": "display_options",
    "required": false,
    "type": "group"
  }
]