[
  {
    "allow_new_line": false,
    "default": null,
    "id": "c89dd286-fba6-60ad-722d-609bd0905edc",
    "label": "Blockquote Text",
    "locked": false,
    "name": "blockquote_text",
    "required": false,
    "show_emoji_picker": false,
    "sortable": false,
    "type": "text",
    "validation_regex": ""
  }
]