[
  {
    "default": "<p>Hello, world!</p>",
    "id": "description",
    "label": "Callout Text",
    "locked": false,
    "name": "description",
    "required": true,
    "type": "richtext"
  },
  {
    "choices": [
      [
        "color0",
        "Grey"
      ],
      [
        "color1",
        "Light blue"
      ]
    ],
    "default": null,
    "display": "select",
    "id": "7181cb49-8dd2-a9ce-bb64-1f03eab817be",
    "label": "Color",
    "locked": false,
    "name": "color",
    "required": true,
    "type": "choice"
  }
]